{
  "title": "Domain Driven Ideas by Watheia Labs",
  "path_prefix": "/",
  "header": {
    "title": "Watheia",
    "has_nav": true,
    "nav_links": [
      {
        "label": "About",
        "url": "/about",
        "style": "link"
      },
      {
        "label": "Blog",
        "url": "/blog",
        "style": "link"
      },
      {
        "label": "Resources",
        "url": "/style-guide",
        "style": "link"
      },
      {
        "label": "Get Support",
        "url": "/contact",
        "style": "primary"
      }
    ],
    "logo": "/images/logo-banner-alt-bg.png",
    "logo_alt": "Watheia Labs"
  },
  "footer": {
    "has_nav": true,
    "nav_links": [
      {
        "label": "Careers",
        "url": "/contact",
        "style": "link"
      },
      {
        "label": "Privacy and Terms",
        "url": "/terms",
        "style": "link"
      }
    ],
    "has_social": true,
    "social_links": [
      {
        "label": "Twitter",
        "url": "https://twitter.com/",
        "style": "link",
        "new_window": true
      },
      {
        "label": "GitHub",
        "url": "https://github.com/",
        "style": "link",
        "new_window": true
      },
      {
        "label": "LinkedIn",
        "url": "https://www.linkedin.com/",
        "style": "link",
        "new_window": true
      }
    ],
    "content": "&copy; Watheia Labs, LLC. All rights reserved."
  },
  "domain": "https://watheia.app",
  "favicon": "/images/icon.png"
}
